Chapter 4 Data wrangling and tidy data | The data-wrangling and omics course for R novices
…
# Summarize life expectancy for the Nordic countries within the 5-year intervals
summary <- nordic_data %>%
  group_by(country, year_interval) %>%
  summarise(avg_life_expectancy = mean(lifeExp, na.rm = TRUE))

## `summarise()` has grouped output by 'country'. You can override using the
## `.groups` argument.

# Show the summarized data
summary

## # A tibble: 60 × 3
## # Groups:   country [5]
##    country year_interval avg_life_expectancy
##    <fct>           <dbl>               <dbl>
##  1 Denmark          1950                70.8
##  2 Denmark          1955                71.8
##  3 Denmark          1960                72.4
##  4 Denmark          1965                73.0
##  5 Denmark          1970                73.5
##  6 Denmark          1975                74.7
##  7 Denmark          1980                74.6
##  8 Denmark          1985                74.8
##  9 Denmark          1990                75.3
## 10 Denmark          1995                76.1
## # ℹ 50 more rows
…
